[gd_scene load_steps=6 format=2]

[ext_resource path="res://assets/sounds/other/BabyMetroidCry 3.ogg" type="AudioStream" id=1]
[ext_resource path="res://assets/other/baby metroid/BabyMetroid.tres" type="SpriteFrames" id=2]
[ext_resource path="res://assets/sounds/other/BabyMetroidCry 1.ogg" type="AudioStream" id=3]
[ext_resource path="res://assets/sounds/other/BabyMetroidCry 2.ogg" type="AudioStream" id=4]

[sub_resource type="Animation" id=1]
resource_name = "main loop"
length = 10.0
loop = true
tracks/0/type = "value"
tracks/0/path = NodePath("AnimatedSprite:animation")
tracks/0/interp = 1
tracks/0/loop_wrap = true
tracks/0/imported = false
tracks/0/enabled = true
tracks/0/keys = {
"times": PoolRealArray( 0, 1.5, 2.2, 5.4, 6.3, 8.5, 9.4 ),
"transitions": PoolRealArray( 1, 1, 1, 1, 1, 1, 1 ),
"update": 1,
"values": [ "default", "fast", "default", "fast", "default", "fast", "default" ]
}
tracks/1/type = "audio"
tracks/1/path = NodePath("AudioStreamPlayer2D")
tracks/1/interp = 1
tracks/1/loop_wrap = true
tracks/1/imported = false
tracks/1/enabled = true
tracks/1/keys = {
"clips": [ {
"end_offset": 0.0,
"start_offset": 0.0,
"stream": ExtResource( 3 )
}, {
"end_offset": 0.0,
"start_offset": 0.0,
"stream": ExtResource( 4 )
}, {
"end_offset": 0.0,
"start_offset": 0.0,
"stream": ExtResource( 1 )
} ],
"times": PoolRealArray( 1.5, 5.4, 8.5 )
}

[node name="BabyMetroidTank" type="Node2D"]

[node name="AudioStreamPlayer2D" type="AudioStreamPlayer2D" parent="."]
stream = ExtResource( 4 )
volume_db = -41.107
autoplay = true

[node name="AnimatedSprite" type="AnimatedSprite" parent="."]
frames = ExtResource( 2 )
frame = 13
playing = true

[node name="AnimationPlayer" type="AnimationPlayer" parent="."]
autoplay = "main loop"
"anims/main loop" = SubResource( 1 )
